6 보건학표_1 – 보건학데이터과학 실습
…
<labelled<double>[6]>
[1]  1  3  1 NA  1  1

Labels:
 value      label
     1 상용근로자
     2 임시근로자
     3 일용근로자

매우 중요한 개념이 나옵니다. 빈칸과 NA 입니다. 모두 값에 대한 정보가 없다는 것입니다. 값에 대한 정보가 없으면 어떻게 해야 할지는 매우 중요한 개념입니다. 우선 여기서는 값에 대한 정보가 없는 것을 제외하고 분석해 보겠습니다. 값에 대한 정보가 없는 데이터는 제거하여, 새로운 데이터를 만들겠습니다. 이때 filter 라는 것을 이용합니다. is.na라는 것은 NA라는 것을 의미하고, 앞에 !는 그 반대를 말합니다.

kwcs %>%
  filter(!is.na(emp_stat))

# A tibble: 27,908 × 459
      id    wt area      hh_num hm_01_gender hm_01_year hm_01_estat  hm_01_rel_t
   <dbl> <dbl> <dbl+lbl>  <dbl> <dbl+lbl>         <dbl> <dbl+lbl>    <dbl+lbl>  
 1     2 0.137 3 [대구]       1 2 [여성]           1966 1 [임금 근… 0 [응답자 …
 2     3 0.350 3 [대구]       1 2 [여성]           1956 1 [임금 근… 0 [응답자 …
 3     6 0.156 7 [울산]       1 2 [여성]           1955 2 [일이 있… 0 [응답자 …
 4     9 0.168 7 [울산]       1 1 [남성]           1982 1 [임금 근… 0 [응답자 …
 5    10 0.675 6 [대전]       4 2 [여성]           1973 1 [임금 근… 0 [응답자 …
 6    18 2.71  6 [대전]       4 1 [남성]           1972 1 [임금 근… 0 [응답자 …
 7    19 3.83  3 [대구]       5 1 [남성]           1969 1 [임금 근… 3 [부모]  …
 8    20 2.90  3 [대구]       4 1 [남성]           1960 1 [임금 근… 3 [부모]  …
 9    22 2.37  3 [대구]       4 1 [남성]           1984 1 [임금 근… 0 [응답자 …
10    23 2.26  3 [대구]       3 1 [남성]           1964 1 [임금 근… 3 [부모]  …
# ℹ 27,898 more rows
# ℹ 451 more variables: hm_02_gender <dbl+lbl>, hm_02_year <dbl>,
#   hm_02_estat <dbl+lbl>, hm_02_rel_t <dbl+lbl>, hm_03_gender <dbl+lbl>,
#   hm_03_year <dbl>, hm_03_estat <dbl+lbl>, hm_03_rel_t <dbl+lbl>,
#   hm_04_gender <dbl+lbl>, hm_04_year <dbl>, hm_04_estat <dbl+lbl>,
#   hm_04_rel_t <dbl+lbl>, hm_05_gender <dbl+lbl>, hm_05_year <dbl>,
#   hm_05_estat <dbl+lbl>, hm_05_rel_t <dbl+lbl>, hm_06_gender <dbl+lbl>, …
…
대표값중 가장 많이 사용하는 것은 mean 과 median 입니다. 이것을 나타내는 표를 만들어 봅시다. 이것의 평균과 표준 편차를 을 구해 보겠습니다.

mean(dat$AGE)

[1] 44.42325

sd(dat$AGE)

[1] 12.25356

이번에는 “tidyverse”를 통해 pipe 코드를 짜 보겠습니다. 데이터를 변형하는 것은 다른 시간에 수행하겠지만, 여기서는 select와 filter, mutate, group_by를 사용하겠습니다. kwcs$TSEX 는 kwcs에서 TSEX를 select하라는 것으로 다름과 같이 사용할 수 있습니다.

dat %>% select(AGE) 

# A tibble: 27,891 × 1
     AGE
   <dbl>
 1    54
 2    64
 3    65
 4    38
 5    47
 6    48
 7    23
 8    28
 9    36
10    22
# ℹ 27,881 more rows
…
이번에는 같은 내용을 수면에 대해서 해보겠습니다. 수면 점수가 높다믄 것은 잠들기 어렵다는 것이 전혀 없음(5점)에 가깝다는 것입니다. 그러니 역의 점수를 만들겠습니다. 1, 2, 3, 4, 5로 기록된 것을 5, 4, 3, 2, 1로 바꾸고 싶은 것입니다. 아래를 이용할 것입니다.

x= 1:5
y= 6-x
y

[1] 5 4 3 2 1

dat %>%
  mutate(sleep1in = 6-sleep1)

# A tibble: 27,891 × 8
   TSEX        AGE emp_stat       heal_prob1 sleep1     sleep2  sleep3  sleep1in
   <dbl+lbl> <dbl> <dbl+lbl>      <dbl+lbl>  <dbl+lbl>  <dbl+l> <dbl+l>    <dbl>
 1 2 [여성]     54 1 [상용근로자] 2 [없다]   5 [전혀없… 5 [전… 5 [전…        1
 2 2 [여성]     64 3 [일용근로자] 2 [없다]   2 [한 주… 2 [한 … 2 [한 …        4
 3 2 [여성]     65 1 [상용근로자] 2 [없다]   5 [전혀없… 5 [전… 5 [전…        1
 4 1 [남성]     38 1 [상용근로자] 2 [없다]   5 [전혀없… 5 [전… 5 [전…        1
 5 2 [여성]     47 1 [상용근로자] 2 [없다]   5 [전혀없… 4 [드… 5 [전…        1
 6 1 [남성]     48 1 [상용근로자] 1 [있다]   5 [전혀없… 5 [전… 5 [전…        1
 7 1 [남성]     23 2 [임시근로자] 2 [없다]   4 [드물게… 4 [드… 4 [드…        2
 8 2 [여성]     28 1 [상용근로자] 2 [없다]   4 [드물게… 4 [드… 4 [드…        2
 9 1 [남성]     36 1 [상용근로자] 2 [없다]   4 [드물게… 4 [드… 4 [드…        2
10 2 [여성]     22 2 [임시근로자] 2 [없다]   5 [전혀없… 5 [전… 5 [전…        1
# ℹ 27,881 more rows
…
sleep1까지 했는데요, sleep2, sleep3 까지 하려면 어떻게 해야 하나요? 이것을 2번더 반복해야 합니다. 만약에 변수가 100개라면 어떻게 해야할까요, 네 1000번 하면됩니다. 좀 익숙한 표를 만들기 위해서 반복하는 것이 가장 기본이 됩니다. 그래도 이제는 이 방법을 응용해서, 컴퓨터가 쉽게 작동하는 방식으로 생각해 보겠습니다.

6.3.3 Long File and Table 1

long file

이제 group 대신에 group이 될 파일을 선택해서 long file로 만들어 보겠습니다. 원하는 파일만 골라 봅니다. 성에 따른 연령, sleep1, 2, 3를 정리해 보겠습니다.

dat1 %>% select(sexgp, AGE, sleep1in, sleep2in, sleep3in)

# A tibble: 27,891 × 5
   sexgp   AGE sleep1in sleep2in sleep3in
   <chr> <dbl>    <dbl>    <dbl>    <dbl>
 1 Women    54        1        1        1
 2 Women    64        4        4        4
 3 Women    65        1        1        1
 4 Men      38        1        1        1
 5 Women    47        1        2        1
 6 Men      48        1        1        1
 7 Men      23        2        2        2
 8 Women    28        2        2        2
 9 Men      36        2        2        2
10 Women    22        1        1        1
# ℹ 27,881 more rows

이러한 파일을 wide라고 부릅니다. 이제 우리는 TSEX별, AGE와 Sleep1의 값을 얻고자 합니다. 그러면 TSEX와 AGE, TSEX와 Sleep이 하나의 group이 됩니다. group을 반복한것과 같습니다. 즉 group의 기본은 -로 제외하고, 이와 상관되는 변수는 모두 포함하여 variables라는 이름으로 만들고, 값은 values라는 변수로 변환시키는 것입니다.

dat1 %>% select(sexgp, AGE, sleep1in, sleep2in, sleep3in) %>%
  pivot_longer(-c(sexgp), names_to ="variables", values_to = "values")

# A tibble: 111,564 × 3
   sexgp variables values
   <chr> <chr>      <dbl>
 1 Women AGE           54
 2 Women sleep1in       1
 3 Women sleep2in       1
 4 Women sleep3in       1
 5 Women AGE           64
 6 Women sleep1in       4
 7 Women sleep2in       4
 8 Women sleep3in       4
 9 Women AGE           65
10 Women sleep1in       1
# ℹ 111,554 more rows
…
