12 T검정, 로지스틱 회귀분석 플랏 – 보건학데이터과학 실습
…
12.3 Overview of data and Table 1

Variables can be divided into dependent and independent variables, and independent variables can be further categorized based on their nature into continuous or nominal variables. Let’s distinguish them as such.

stratas  = c("sleepgp")
catVars = c("wwa1gp", "shortReturn","shiftWork" , "njob", "sexgp",  "edugp", "empgp")
conVars = c("AGE","satisfaction")

tab1 = tabf(dat1=dat1, stratas = stratas, catVars = catVars, conVars = conVars)
tab1

# A tibble: 22 × 5
   variables      values       `0.non distrubance` `1.sleep disturbance` p.value
   <chr>          <chr>        <chr>               <chr>                 <chr>  
 1 "AGE"          ""           46.8±12.4           49.7±11.9             "<0.00…
 2 "wwa1gp"       "Never"      12222 (94.7%)       684 (5.3%)            "<0.00…
 3 ""             "Rarely"     12316 (94.5%)       714 (5.5%)            ""     
 4 ""             "Sometimes"  9112 (90.3%)        981 (9.7%)            ""     
 5 ""             "Often"      3456 (82.8%)        717 (17.2%)           ""     
 6 ""             "Always"     634 (70.0%)         272 (30.0%)           ""     
 7 "satisfaction" ""           2.1±0.5             2.4±0.6               "<0.00…
 8 "shortReturn"  "non short … 36183 (92.5%)       2927 (7.5%)           "<0.00…
 9 ""             "short retu… 1557 (77.9%)        441 (22.1%)           ""     
10 "shiftWork"    "non shift … 35056 (91.9%)       3073 (8.1%)           "<0.00…
# ℹ 12 more rows
…
