보건학데이터과학 실습 - 15 웹 스크래핑 I
…
Find source and nodes

URL에서 table 노드를 찾으려고 합니다.

tab <- h %>% html_nodes("table")

아래에서 보는 것 처럼 tab[[2]] 일때도 있고, tab[[13]]일 때도 있습니다. 매번 page가 바뀌면 우리도 바꿔줘야 합니다.

tab2 <- tab[[13]] %>% html_table

#openxlsx::write.xlsx(tab2, 'data/websc/tab2.xlsx')
#tab2 <- read_xlsx('data/websc/tab2.xlsx')
tab2

# A tibble: 240 × 5
   ``    Country                `Deaths / million` Deaths    Cases      
   <chr> <chr>                  <chr>              <chr>     <chr>      
 1 ""    World[a]               874                6,978,162 771,820,173
 2 ""    Peru                   6,511              221,727   4,522,474  
 3 ""    Bulgaria               5,670              38,456    1,307,688  
 4 ""    Bosnia and Herzegovina 5,060              16,364    403,293    
 5 ""    Hungary                4,898              48,828    2,211,136  
 6 ""    North Macedonia        4,752              9,949     349,618    
 7 ""    Georgia                4,575              17,132    1,855,289  
 8 ""    Croatia                4,574              18,438    1,276,497  
 9 ""    Slovenia               4,465              9,467     1,346,628  
10 ""    Montenegro             4,232              2,654     251,280    
# ℹ 230 more rows
…
